docs/dump.vcd
$date
	Thu Apr  9 12:15:31 2026
$end
$version
	QuestaSim Version 10.6c
$end
$timescale
	1ns
$end

$scope module alu_top $end
$var reg 1 ! clk $end

$scope module dut $end
$var parameter 32 " DW $end
$var parameter 32 # CW $end
$var wire 1 $ OPA [7] $end
$var wire 1 % OPA [6] $end
$var wire 1 & OPA [5] $end
$var wire 1 ' OPA [4] $end
$var wire 1 ( OPA [3] $end
$var wire 1 ) OPA [2] $end
$var wire 1 * OPA [1] $end
$var wire 1 + OPA [0] $end
$var wire 1 , OPB [7] $end
$var wire 1 - OPB [6] $end
$var wire 1 . OPB [5] $end
$var wire 1 / OPB [4] $end
$var wire 1 0 OPB [3] $end
$var wire 1 1 OPB [2] $end
$var wire 1 2 OPB [1] $end
$var wire 1 3 OPB [0] $end
$var wire 1 4 CLK $end
$var wire 1 5 RST $end
$var wire 1 6 CE $end
$var wire 1 7 MODE $end
$var wire 1 8 CIN $end
$var wire 1 9 CMD [3] $end
$var wire 1 : CMD [2] $end
$var wire 1 ; CMD [1] $end
$var wire 1 < CMD [0] $end
$var wire 1 = INP_VALID [1] $end
$var wire 1 > INP_VALID [0] $end
$var reg 10 ? RES [9:0] $end
$var reg 1 @ COUT $end
$var reg 1 A OFLOW $end
$var reg 1 B G $end
$var reg 1 C E $end
$var reg 1 D L $end
$var reg 1 E ERR $end
$var reg 8 F OPA_1 [7:0] $end
$var reg 8 G OPB_1 [7:0] $end
$var reg 8 H oprd1 [7:0] $end
$var reg 8 I oprd2 [7:0] $end
$var reg 4 J CMD_tmp [3:0] $end
$var reg 8 K AU_out_tmp1 [7:0] $end
$var reg 8 L AU_out_tmp2 [7:0] $end
$upscope $end
$upscope $end
$enddefinitions $end
#0
$dumpvars
0!
b0zzzzzzzz ?
z@
zA
zB
zC
zD
zE
bx F
bx G
bx H
bx I
bx J
bx K
bx L
b1000 "
b100 #
z5
04
x6
x7
x<
x;
x:
x9
x>
x=
x+
x*
x)
x(
x'
x&
x%
x$
x3
x2
x1
x0
x/
x.
x-
x,
x8
$end
#5
1!
14
b0 H
b0 I
b0 J
15
#10
0!
04
#15
1!
14
#20
0!
04
#25
1!
14
05
#30
0!
04
#35
1!
14
16
17
13
02
11
00
0/
0.
1-
1,
1+
1*
0)
0(
0'
1&
1%
1$
1>
1=
0<
0;
0:
09
18
#40
0!
04
#45
1!
14
b0zzzzzzzzz ?
b0 ?
0@
b11100011 H
b11000101 I
#50
0!
04
#55
1!
14
b0zzzzzzzzz ?
z@
b110101000 ?
1@
01
10
1.
0-
0+
1)
1(
0&
#60
0!
04
#65
1!
14
b0zzzzzzzzz ?
z@
b110101000 ?
1@
b11001110 H
b10101001 I
#70
0!
04
#75
1!
14
b0zzzzzzzzz ?
z@
b101110111 ?
1@
03
11
00
1/
1-
0)
1&
#80
0!
04
#85
1!
14
b0zzzzzzzzz ?
z@
b101110111 ?
1@
b11101010 H
b11110100 I
#90
0!
04
#95
1!
14
b0zzzzzzzzz ?
z@
b111011110 ?
1@
13
12
01
0-
0,
1+
0&
0%
0$
1<
#100
0!
04
#105
1!
14
b0zzzzzzzzz ?
z@
b111011110 ?
1@
b1011 H
b110011 I
b1 J
#110
0!
04
#115
1!
14
b0zzzzzzzzz ?
z@
1A
b1111011000 ?
03
02
1-
0+
0*
1)
0(
1$
08
#120
0!
04
#125
1!
14
b0zzzzzzzzz ?
zA
1A
b1111011000 ?
b10000100 H
b1110000 I
#130
0!
04
#135
1!
14
b0zzzzzzzzz ?
zA
0A
b10100 ?
12
10
0/
1,
1(
1'
0$
18
#140
0!
04
#145
1!
14
b0zzzzzzzzz ?
zA
0A
b10100 ?
b11100 H
b11101010 I
#150
0!
04
#155
1!
14
b0zzzzzzzzz ?
zA
1A
b1100110010 ?
02
1/
0-
0,
1+
0)
0'
1&
1%
0<
1;
#160
0!
04
#165
1!
14
b0zzzzzzzzz ?
zA
1A
b1100110010 ?
b1101001 H
b111000 I
b10 J
#170
0!
04
#175
1!
14
b0zzzzzzzzz ?
zA
b10100010 ?
0@
00
1,
1*
1'
1$
#180
0!
04
#185
1!
14
b0zzzzzzzzz ?
z@
b10100010 ?
0@
b11111011 H
b10110000 I
#190
0!
04
#195
1!
14
b0zzzzzzzzz ?
z@
b110101100 ?
1@
13
12
0.
1-
0,
0(
0'
0&
0%
0$
08
#200
0!
04
#205
1!
14
b0zzzzzzzzz ?
z@
b110101011 ?
1@
b11 H
b1010011 I
#210
0!
04
#215
1!
14
b0zzzzzzzzz ?
z@
b1010110 ?
0@
0/
1.
0*
1)
1(
1'
1<
18
#220
0!
04
#225
1!
14
b0zzzzzzzzz ?
z@
b1010111 ?
0@
b11101 H
b1100011 I
b11 J
#230
0!
04
#235
1!
14
b0zzzzzzzzz ?
z@
1A
b1110111001 ?
03
02
10
0.
0+
1$
08
#240
0!
04
#245
1!
14
b0zzzzzzzzz ?
zA
1A
b1110111010 ?
b10011100 H
b1001000 I
#250
0!
04
#255
1!
14
b0zzzzzzzzz ?
zA
0A
b1010100 ?
13
12
11
00
0-
1*
0)
0'
1%
18
#260
0!
04
#265
1!
14
b0zzzzzzzzz ?
zA
0A
b1010011 ?
b11001010 H
b111 I
#270
0!
04
#275
1!
14
b0zzzzzzzzz ?
zA
0A
b11000010 ?
10
1/
1-
1,
1'
1&
0=
0<
0;
1:
#280
0!
04
#285
1!
14
b0zzzzzzzzz ?
zA
0A
b11000010 ?
b11111010 H
b100 J
#290
0!
04
#295
1!
14
b0zzzzzzzzz ?
zA
b11111010 ?
00
0/
1+
0*
0'
0%
#300
0!
04
#305
1!
14
b0zzzzzzzzz ?
b11111010 ?
b10101001 H
#310
0!
04
#315
1!
14
b0zzzzzzzzz ?
b10101001 ?
03
02
01
1/
1.
0,
0+
1)
0(
1'
0&
08
#320
0!
04
#325
1!
14
b0zzzzzzzzz ?
b10101001 ?
b10010100 H
#330
0!
04
#335
1!
14
b0zzzzzzzzz ?
b10010100 ?
13
10
0/
0.
1+
0)
0$
1<
#340
0!
04
#345
1!
14
b0zzzzzzzzz ?
b10010100 ?
b10001 H
b101 J
#350
0!
04
#355
1!
14
b0zzzzzzzzz ?
b10000 ?
1/
1.
0+
1*
1(
0'
1%
18
#360
0!
04
#365
1!
14
b0zzzzzzzzz ?
b10000 ?
b1001010 H
#370
0!
04
#375
1!
14
b0zzzzzzzzz ?
b1001001 ?
03
12
00
0/
0.
1+
0*
0(
1&
1$
08
#380
0!
04
#385
1!
14
b0zzzzzzzzz ?
b1001001 ?
b11100001 H
#390
0!
04
#395
1!
14
b0zzzzzzzzz ?
b11100000 ?
11
10
1/
1,
1*
0>
1=
0<
1;
#400
0!
04
#405
1!
14
b0zzzzzzzzz ?
b11100000 ?
b11011110 I
b110 J
#410
0!
04
#415
1!
14
b0zzzzzzzzz ?
b11011101 ?
02
01
0/
1.
0-
0,
0*
1)
18
#420
0!
04
#425
1!
14
b0zzzzzzzzz ?
b11011101 ?
b101000 I
#430
0!
04
#435
1!
14
b0zzzzzzzzz ?
b100111 ?
13
12
1-
1,
0+
1*
0)
1'
0%
08
#440
0!
04
#445
1!
14
b0zzzzzzzzz ?
b100111 ?
b11101011 I
#450
0!
04
#455
1!
14
b0zzzzzzzzz ?
b11101010 ?
00
1/
0.
0-
1)
1(
0&
1<
#460
0!
04
#465
1!
14
b0zzzzzzzzz ?
b11101010 ?
b10010011 I
b111 J
#470
0!
04
#475
1!
14
b0zzzzzzzzz ?
b10010100 ?
02
10
0/
1.
1-
0,
0)
0'
1&
1%
0$
18
#480
0!
04
#485
1!
14
b0zzzzzzzzz ?
b10010100 ?
b1101001 I
#490
0!
04
#495
1!
14
b0zzzzzzzzz ?
b1101010 ?
03
1/
0.
1,
0*
1)
0(
1'
0&
1$
#500
0!
04
#505
1!
14
b0zzzzzzzzz ?
b1101010 ?
b11011000 I
#510
0!
04
#515
1!
14
b0zzzzzzzzz ?
b11011001 ?
11
00
0/
1.
0-
0,
1(
1>
0<
0;
0:
19
08
#520
0!
04
#525
1!
14
b0zzzzzzzzz ?
b11011001 ?
b11011100 H
b100100 I
b1000 J
#530
0!
04
#535
1!
14
b0zzzzzzzzz ?
1B
13
0.
1,
1*
0)
0'
#540
0!
04
#545
1!
14
zB
1B
b11001010 H
b10000101 I
#550
0!
04
#555
1!
14
zB
1B
03
10
0,
1+
0*
0(
1&
0%
0$
18
#560
0!
04
#565
1!
14
zB
1B
b100001 H
b1100 I
#570
0!
04
#575
1!
14
zB
1B
13
12
00
1.
1-
1*
1)
1(
0&
1%
#580
0!
04
#585
1!
14
zB
1B
b1001111 H
b1100111 I
#590
0!
04
#595
1!
14
zB
1D
02
01
10
0.
1,
0+
0*
0)
0(
1'
1&
0%
1$
08
#600
0!
04
#605
1!
14
zD
1D
b10110000 H
b11001001 I
#610
0!
04
#615
1!
14
zD
1D
03
00
1/
1.
1)
1(
0'
1%
#620
0!
04
#625
1!
14
zD
1D
b11101100 H
b11110000 I
#630
0!
04
#635
1!
14
zD
1D
12
11
10
0/
0.
1*
0&
#640
0!
04
#645
1!
14
zD
1D
b11001110 H
b11001110 I
#650
0!
04
#655
1!
14
zD
1C
01
00
0)
0(
#660
0!
04
#665
1!
14
zC
1C
b11000010 H
b11000010 I
#670
0!
04
#675
1!
14
zC
1C
13
02
10
1/
1.
1+
0*
1(
1'
1&
#680
0!
04
#685
1!
14
zC
1C
b11111001 H
b11111001 I
#690
0!
04
#695
1!
14
zC
1C
12
0-
0,
0'
1<
#700
0!
04
#705
1!
14
zC
1C
b11101001 H
b111011 I
b1001 J
#710
0!
04
#715
1!
14
zC
b11101010 K
b111100 L
bx ?
#720
0!
04
#725
1!
14
b0zzzzzzzzz ?
b1011011000 ?
00
0/
1,
0+
1*
0(
1'
0&
0%
0$
18
#730
0!
04
#735
1!
14
b0zzzzzzzzz ?
b10010 H
b10100011 I
b1011011000 ?
#740
0!
04
#745
1!
14
b0zzzzzzzzz ?
b10011 K
b10100100 L
b1011011000 ?
#750
0!
04
#755
1!
14
b0zzzzzzzzz ?
b101100 ?
10
1/
0.
1-
1+
0*
0'
1$
#760
0!
04
#765
1!
14
b0zzzzzzzzz ?
b10000001 H
b11011011 I
b101100 ?
#770
0!
04
#775
1!
14
b0zzzzzzzzz ?
b10000010 K
b11011100 L
b101100 ?
#780
0!
04
#785
1!
14
b0zzzzzzzzz ?
b1110111000 ?
02
11
00
0-
0+
1&
0$
0<
1;
#790
0!
04
#795
1!
14
b0zzzzzzzzz ?
b100000 H
b10010101 I
b1010 J
b1110111000 ?
#800
0!
04
#805
1!
14
b0zzzzzzzzz ?
b1000000 K
b10010101 L
b1110100110 ?
#810
0!
04
#815
1!
14
b0zzzzzzzzz ?
b1110101011 ?
03
1*
1(
1$
08
#820
0!
04
#825
1!
14
b0zzzzzzzzz ?
b10101010 H
b10010100 I
b1110101011 ?
#830
0!
04
#835
1!
14
b0zzzzzzzzz ?
b1010100 K
b10010100 L
b1110101011 ?
#840
0!
04
#845
1!
14
b0zzzzzzzzz ?
b1111000000 ?
01
10
0,
1+
0*
1'
0&
0$
#850
0!
04
#855
1!
14
b0zzzzzzzzz ?
b11001 H
b11000 I
b1111000000 ?
#860
0!
04
#865
1!
14
b0zzzzzzzzz ?
b110010 K
b11000 L
b1111000000 ?
#870
0!
04
#875
1!
14
b0zzzzzzzzz ?
b11010 ?
07
13
12
11
00
1.
0+
0(
1%
0;
09
#880
0!
04
#885
1!
14
b0zzzzzzzzz ?
b110000 ?
b1010000 H
b110111 I
b0 J
#890
0!
04
#895
1!
14
b0zzzzzzzzz ?
b10000 ?
01
10
0.
1-
1(
1&
0%
18
#900
0!
04
#905
1!
14
b0zzzzzzzzz ?
b10000 ?
b111000 H
b1011011 I
#910
0!
04
#915
1!
14
b0zzzzzzzzz ?
b11000 ?
00
0-
1)
0(
#920
0!
04
#925
1!
14
b0zzzzzzzzz ?
b11000 ?
b110100 H
b10011 I
#930
0!
04
#935
1!
14
b0zzzzzzzzz ?
b10000 ?
03
02
11
10
0/
1,
1*
1(
0'
1%
1<
#940
0!
04
#945
1!
14
b0zzzzzzzzz ?
b10000 ?
b1101110 H
b10001100 I
b1 J
#950
0!
04
#955
1!
14
b0zzzzzzzzz ?
b11110011 ?
12
01
1-
0)
0(
1'
0&
1$
08
#960
0!
04
#965
1!
14
b0zzzzzzzzz ?
b11110011 ?
b11010010 H
b11001010 I
#970
0!
04
#975
1!
14
b0zzzzzzzzz ?
b111101 ?
13
11
1/
1.
0-
0,
1+
0*
1(
1&
0%
18
#980
0!
04
#985
1!
14
b0zzzzzzzzz ?
b111101 ?
b10111001 H
b111111 I
#990
0!
04
#995
1!
14
b0zzzzzzzzz ?
b11000110 ?
03
01
0/
0.
1,
0+
0&
0<
1;
08
#1000
0!
04
#1005
1!
14
b0zzzzzzzzz ?
b11000110 ?
b10011000 H
b10001010 I
b10 J
#1010
0!
04
#1015
1!
14
b0zzzzzzzzz ?
b1 ?
11
00
1.
0,
1*
0(
0'
0$
18
#1020
0!
04
#1025
1!
14
b0zzzzzzzzz ?
b1 ?
b10 H
b100110 I
#1030
0!
04
#1035
1!
14
b0zzzzzzzzz ?
b1 ?
13
01
1/
1-
1(
1&
#1040
0!
04
#1045
1!
14
b0zzzzzzzzz ?
b1 ?
b101010 H
b1110011 I
#1050
0!
04
#1055
1!
14
b0zzzzzzzzz ?
b1 ?
03
11
0-
1+
0(
1'
0&
1$
1<
08
#1060
0!
04
#1065
1!
14
b0zzzzzzzzz ?
b1 ?
b10010011 H
b110110 I
b11 J
#1070
0!
04
#1075
1!
14
b0zzzzzzzzz ?
b1001000 ?
02
01
10
0.
1-
1,
0+
0*
1(
1&
1%
0$
18
#1080
0!
04
#1085
1!
14
b0zzzzzzzzz ?
b1001000 ?
b1111000 H
b11011000 I
#1090
0!
04
#1095
1!
14
b0zzzzzzzzz ?
b111 ?
13
12
1)
0'
0%
#1100
0!
04
#1105
1!
14
b0zzzzzzzzz ?
b111 ?
b101100 H
b11011011 I
#1110
0!
04
#1115
1!
14
b0zzzzzzzzz ?
b0 ?
1.
1*
0(
1%
0<
0;
1:
#1120
0!
04
#1125
1!
14
b0zzzzzzzzz ?
b0 ?
b1100110 H
b11111011 I
b100 J
#1130
0!
04
#1135
1!
14
b0zzzzzzzzz ?
b10011101 ?
0/
0.
0-
1+
0)
1(
08
#1140
0!
04
#1145
1!
14
b0zzzzzzzzz ?
b10011101 ?
b1101011 H
b10001011 I
#1150
0!
04
#1155
1!
14
b0zzzzzzzzz ?
b11100000 ?
1.
1-
1)
0(
0&
#1160
0!
04
#1165
1!
14
b0zzzzzzzzz ?
b11100000 ?
b1000111 H
b11101011 I
#1170
0!
04
#1175
1!
14
b0zzzzzzzzz ?
b10101100 ?
03
02
11
0.
0-
0*
0)
1(
1<
18
#1180
0!
04
#1185
1!
14
b0zzzzzzzzz ?
b10101100 ?
b1001001 H
b10001100 I
b101 J
#1190
0!
04
#1195
1!
14
b0zzzzzzzzz ?
b111010 ?
13
01
1.
0(
1'
1$
08
#1200
0!
04
#1205
1!
14
b0zzzzzzzzz ?
b111010 ?
b11010001 H
b10101001 I
#1210
0!
04
#1215
1!
14
b0zzzzzzzzz ?
b10000111 ?
11
1/
1-
0,
0+
0'
1&
0%
0$
18
#1220
0!
04
#1225
1!
14
b0zzzzzzzzz ?
b10000111 ?
b100000 H
b1111101 I
#1230
0!
04
#1235
1!
14
b0zzzzzzzzz ?
b10100010 ?
03
12
0.
1)
1'
1%
0=
0<
1;
#1240
0!
04
#1245
1!
14
b0zzzzzzzzz ?
b10100010 ?
b1110100 H
b110 J
#1250
0!
04
#1255
1!
14
b0zzzzzzzzz ?
b10001011 ?
02
0/
1.
1,
1+
1*
0)
0&
0%
1$
08
#1260
0!
04
#1265
1!
14
b0zzzzzzzzz ?
b10001011 ?
b10010011 H
#1270
0!
04
#1275
1!
14
b0zzzzzzzzz ?
b1101100 ?
13
12
01
00
1/
0,
0*
1)
0$
18
#1280
0!
04
#1285
1!
14
b0zzzzzzzzz ?
b1101100 ?
b10101 H
#1290
0!
04
#1295
1!
14
b0zzzzzzzzz ?
b11101010 ?
03
11
0/
0-
1,
0+
0'
1%
0>
1=
1<
08
#1300
0!
04
#1305
1!
14
b0zzzzzzzzz ?
b11101010 ?
b10100110 I
b111 J
#1310
0!
04
#1315
1!
14
b0zzzzzzzzz ?
b1011001 ?
13
02
01
0.
0,
1*
1&
0%
1$
18
#1320
0!
04
#1325
1!
14
b0zzzzzzzzz ?
b1011001 ?
b1 I
#1330
0!
04
#1335
1!
14
b0zzzzzzzzz ?
b11111110 ?
12
1-
1,
1+
1(
0&
1%
08
#1340
0!
04
#1345
1!
14
b0zzzzzzzzz ?
b11111110 ?
b11000011 I
#1350
0!
04
#1355
1!
14
b0zzzzzzzzz ?
b111100 ?
03
11
10
1.
0,
0+
0*
1'
1&
0$
1>
0=
0<
0;
0:
19
18
#1360
0!
04
#1365
1!
14
b0zzzzzzzzz ?
b111100 ?
b1111100 H
b1000 J
#1370
0!
04
#1375
1!
14
b0zzzzzzzzz ?
b1111100 ?
13
01
0.
0-
0(
0'
0%
1$
08
#1380
0!
04
#1385
1!
14
b0zzzzzzzzz ?
b1111100 ?
b10100100 H
#1390
0!
04
#1395
1!
14
b0zzzzzzzzz ?
b10100100 ?
02
00
1/
1+
1*
1'
0$
18
#1400
0!
04
#1405
1!
14
b0zzzzzzzzz ?
b10100100 ?
b110111 H
#1410
0!
04
#1415
1!
14
b0zzzzzzzzz ?
b110111 ?
03
12
11
10
0/
1-
0*
0)
1(
0'
0&
1%
1$
1<
#1420
0!
04
#1425
1!
14
b0zzzzzzzzz ?
b110111 ?
b11001001 H
b1001 J
#1430
0!
04
#1435
1!
14
b0zzzzzzzzz ?
b10010010 ?
13
01
0+
1*
1&
0$
#1440
0!
04
#1445
1!
14
b0zzzzzzzzz ?
b10010010 ?
b1101010 H
#1450
0!
04
#1455
1!
14
b0zzzzzzzzz ?
b11010100 ?
03
11
1.
0-
1,
1)
#1460
0!
04
#1465
1!
14
b0zzzzzzzzz ?
b11010100 ?
b1101110 H
#1470
0!
04
#1475
1!
14
b0zzzzzzzzz ?
b11011100 ?
02
01
1-
0,
0)
0%
0>
1=
0<
1;
#1480
0!
04
#1485
1!
14
b0zzzzzzzzz ?
b11011100 ?
b1101000 I
b1010 J
#1490
0!
04
#1495
1!
14
b0zzzzzzzzz ?
b11010000 ?
13
11
00
1+
0*
0(
1'
0&
1$
#1500
0!
04
#1505
1!
14
b0zzzzzzzzz ?
b11010000 ?
b1100101 I
#1510
0!
04
#1515
1!
14
b0zzzzzzzzz ?
b11001010 ?
03
01
10
0-
1,
0+
1)
1&
08
#1520
0!
04
#1525
1!
14
b0zzzzzzzzz ?
b11001010 ?
b10101000 I
#1530
0!
04
#1535
1!
14
b0zzzzzzzzz ?
b1010000 ?
13
11
00
1/
0.
1-
0,
1(
0&
1<
18
#1540
0!
04
#1545
1!
14
b0zzzzzzzzz ?
b1010000 ?
b1010101 I
b1011 J
#1550
0!
04
#1555
1!
14
b0zzzzzzzzz ?
b10101010 ?
12
01
10
1,
1+
0'
1&
0$
#1560
0!
04
#1565
1!
14
b0zzzzzzzzz ?
b10101010 ?
b11011011 I
#1570
0!
04
#1575
1!
14
b0zzzzzzzzz ?
b10110110 ?
03
02
11
00
0/
1.
0+
0(
1%
1$
#1580
0!
04
#1585
1!
14
b0zzzzzzzzz ?
b10110110 ?
b11100100 I
#1590
0!
04
#1595
1!
14
b0zzzzzzzzz ?
b11001000 ?
12
10
1/
0,
1+
0)
0&
0$
1>
0<
0;
1:
08
#1600
0!
04
#1605
1!
14
b0zzzzzzzzz ?
b11001000 ?
b1000001 H
b1111110 I
b1100 J
#1610
0!
04
#1615
1!
14
b0zzzzzzzzz ?
b1000001 F
b101 G
b1010000 ?
1E
01
0/
0.
0-
0+
1(
1'
1&
0%
18
#1620
0!
04
#1625
1!
14
b0zzzzzzzzz ?
zE
b1010000 ?
1E
b111000 H
b1010 I
#1630
0!
04
#1635
1!
14
b0zzzzzzzzz ?
zE
b111000 F
b11100000 G
b11100000 ?
11
1*
0'
1%
1$
#1640
0!
04
#1645
1!
14
b0zzzzzzzzz ?
b11100000 ?
b11101010 H
b1110 I
#1650
0!
04
#1655
1!
14
b0zzzzzzzzz ?
b11101010 F
b10101011 G
b10111010 ?
13
01
00
1.
1+
1)
0&
0%
1<
08
#1660
0!
04
#1665
1!
14
b0zzzzzzzzz ?
b10111010 ?
b10001111 H
b100011 I
b1101 J
#1670
0!
04
#1675
1!
14
b0zzzzzzzzz ?
b11000111 F
b11110001 G
b11110001 ?
0E
11
0.
1-
1,
0+
0*
0(
1'
1%
#1680
0!
04
#1685
1!
14
b0zzzzzzzzz ?
zE
b11110001 ?
0E
b11010100 H
b11000111 I
#1690
0!
04
#1695
1!
14
b0zzzzzzzzz ?
zE
b1101010 F
b10011010 G
b10101001 ?
0E
02
01
1/
0-
1(
1&
0%
0$
18
#1700
0!
04
#1705
1!
14
b0zzzzzzzzz ?
zE
b10101001 ?
0E
b111100 H
b10010001 I
#1710
0!
04
#1715
1!
14
b0zzzzzzzzz ?
zE
b11110 F
b11110 G
b11110 ?
0E
06
17
12
11
0/
1.
1+
0)
0&
0<
0:
09
#1720
0!
04
#1725
1!
14
b11001 H
b10100111 I
b0 J
#1730
0!
04
#1735
1!
14
16
03
01
10
1/
0+
1*
1&
1%
0>
0=
08
#1740
0!
04
#1745
1!
14
b0zzzzzzzzz ?
zE
b11000000 ?
0@
b0 H
b0 I
#1750
0!
04
#1755
1!
14
b0zzzzzzzzz ?
z@
b0 ?
0@
00
1-
0*
0(
0'
0&
0%
1>
#1760
0!
04
#1765
1!
14
b0zzzzzzzzz ?
z@
b0 ?
0@
#1770
0!
04
#1775
1!
14
b0zzzzzzzzz ?
z@
b0 ?
0@
11
0.
0-
0,
#1780
0!
04
#1785
1!
14
b0zzzzzzzzz ?
z@
b0 ?
0@
#1790
0!
04
#1795
1!
14
b0zzzzzzzzz ?
z@
b0 ?
0@
13
0/
1,
18
#1800
0!
04
#1805
1!
14
b0zzzzzzzzz ?
z@
b0 ?
0@
#1810
0!
04
#1815
1!
14
b0zzzzzzzzz ?
z@
b0 ?
0@
03
02
01
0,
1+
1)
1(
1'
1&
0>
1=
08
#1820
0!
04
#1825
1!
14
b0zzzzzzzzz ?
z@
b0 ?
0@
#1830
0!
04
#1835
1!
14
b0zzzzzzzzz ?
z@
b0 ?
0@
0(
0&
1%
1$
18
#1840
0!
04
#1845
1!
14
b0zzzzzzzzz ?
z@
b0 ?
0@
#1850
0!
04
#1855
1!
14
b0zzzzzzzzz ?
z@
b0 ?
0@
0+
1*
1&
0$
08
#1860
0!
04
#1865
1!
14
b0zzzzzzzzz ?
z@
b0 ?
0@
#1870
0!
04
#1875
1!
14
b0zzzzzzzzz ?
z@
b0 ?
0@
13
11
1,
1(
0%
1>
0=
19
18
#1880
0!
04
#1885
1!
14
b0zzzzzzzzz ?
z@
b0 ?
0@
b111110 H
b1000 J
#1890
0!
04
#1895
1!
14
b0zzzzzzzzz ?
z@
1B
12
01
10
1.
0*
0(
0>
1=
08
#1900
0!
04
#1905
1!
14
zB
1B
b10101011 I
#1910
0!
04
#1915
1!
14
zB
1D
00
1/
0.
1-
0,
0)
0&
1%
1$
1<
1;
09
#1920
0!
04
#1925
1!
14
zD
1D
b1010011 I
b11 J
#1930
0!
04
#1935
1!
14
zD
1A
b1111101011 ?
0/
1,
1+
1(
0'
0;
#1940
0!
04
#1945
1!
14
b0zzzzzzzzz ?
zA
1A
b1111101011 ?
b11000011 I
b1 J
#1950
0!
04
#1955
1!
14
b0zzzzzzzzz ?
zA
1A
b1101111011 ?
03
10
1/
1.
0-
0,
1)
1&
1>
1:
18
#1960
0!
04
#1965
1!
14
b0zzzzzzzzz ?
zA
1A
b1101111011 ?
b11101101 H
b111010 I
b101 J
#1970
0!
04
#1975
1!
14
b0zzzzzzzzz ?
zA
b11101100 ?
13
11
00
0/
0.
1'
0>
0=
1;
0:
#1980
0!
04
#1985
1!
14
b0zzzzzzzzz ?
b11101100 ?
b0 H
b0 I
b0 J
#1990
0!
04
#1995
1!
14
b0zzzzzzzzz ?
b0 ?
0@
02
01
10
1,
0+
0(
0'
0&
0%
1=
0<
0;
08
#2000
0!
04
#2005
1!
14
b0zzzzzzzzz ?
z@
b0 ?
0@
b10001001 I
#2010
0!
04
#2015
1!
14
b0zzzzzzzzz ?
z@
b10001001 ?
0@
12
1.
1*
1&
1>
1:
18
#2020
0!
04
#2025
1!
14
b0zzzzzzzzz ?
z@
b10001001 ?
0@
b10100110 H
b10101011 I
b100 J
#2030
0!
04
#2035
1!
14
b0zzzzzzzzz ?
z@
b10100110 ?
1/
0.
1-
0,
0*
1(
0>
1;
0:
08
#2040
0!
04
#2045
1!
14
b0zzzzzzzzz ?
b10100110 ?
b1011011 I
b10 J
#2050
0!
04
#2055
1!
14
b0zzzzzzzzz ?
b100000001 ?
1@
03
02
11
00
0/
1+
1*
0&
1%
0$
1>
0=
19
#2060
0!
04
#2065
1!
14
b0zzzzzzzzz ?
z@
b100000001 ?
1@
b1001111 H
b1010 J
#2070
0!
04
#2075
1!
14
b0zzzzzzzzz ?
z@
b10011110 K
b1011011 L
b11010 ?
#2080
0!
04
#2085
1!
14
b0zzzzzzzzz ?
b1000011 ?
13
12
01
10
1.
1,
0+
0*
1$
0>
1:
09
#2090
0!
04
#2095
1!
14
b0zzzzzzzzz ?
b0 H
b0 I
b0 J
b1000011 ?
#2100
0!
04
#2105
1!
14
b0zzzzzzzzz ?
b0 ?
0@
03
02
00
0-
0,
1+
0)
0(
1'
1&
0$
1=
1<
18
#2110
0!
04
#2115
1!
14
b0zzzzzzzzz ?
z@
b0 ?
0@
b100000 I
b111 J
#2120
0!
04
#2125
1!
14
b0zzzzzzzzz ?
z@
b100001 ?
13
0+
1*
0'
1$
0=
0<
0;
#2130
0!
04
#2135
1!
14
b0zzzzzzzzz ?
b100001 ?
b0 I
b0 J
#2140
0!
04
#2145
1!
14
b0zzzzzzzzz ?
b0 ?
0@
03
11
1/
0.
1-
0*
1)
0&
1>
1<
0:
19
#2150
0!
04
#2155
1!
14
b0zzzzzzzzz ?
z@
b0 ?
0@
b11000100 H
b1001 J
#2160
0!
04
#2165
1!
14
b0zzzzzzzzz ?
z@
b11000101 K
b1 L
b101010 ?
#2170
0!
04
#2175
1!
14
b0zzzzzzzzz ?
b11000101 ?
12
1.
1+
0)
1(
1&
0$
0>
1=
08
#2180
0!
04
#2185
1!
14
b0zzzzzzzzz ?
b1110110 I
b11000101 ?
#2190
0!
04
#2195
1!
14
b0zzzzzzzzz ?
b1110111 L
b11000101 ?
#2200
0!
04
#2205
1!
14
b0zzzzzzzzz ?
b1110010011 ?
02
10
0.
1,
1'
0&
0%
1$
1>
0<
1;
18
#2210
0!
04
#2215
1!
14
b0zzzzzzzzz ?
b10011001 H
b11011100 I
b1010 J
b1110010011 ?
#2220
0!
04
#2225
1!
14
b0zzzzzzzzz ?
b110010 K
b11011100 L
b1001110 ?
#2230
0!
04
#2235
1!
14
b0zzzzzzzzz ?
b1101010110 ?
13
00
0/
0,
1*
1)
0>
0;
08
#2240
0!
04
#2245
1!
14
b0zzzzzzzzz ?
b1000101 I
b1000 J
b1101010110 ?
#2250
0!
04
#2255
1!
14
b0zzzzzzzzz ?
1B
03
10
1/
1.
0*
0)
1%
1:
09
18
#2260
0!
04
#2265
1!
14
zB
1B
b1111100 I
b100 J
#2270
0!
04
#2275
1!
14
zB
b10011001 ?
13
12
01
0/
0-
1,
0+
1)
1&
0%
0=
0:
08
#2280
0!
04
#2285
1!
14
b0zzzzzzzzz ?
b10011001 ?
b0 H
b0 I
b0 J
#2290
0!
04
#2295
1!
14
b0zzzzzzzzz ?
b0 ?
0@
03
02
11
1-
0)
0(
0&
1<
#2300
0!
04
#2305
1!
14
b0zzzzzzzzz ?
z@
b0 ?
0@
#2310
0!
04
#2315
1!
14
b0zzzzzzzzz ?
z@
b0 ?
0@
13
0.
0-
1*
1(
1&
0$
1=
0<
1;
#2320
0!
04
#2325
1!
14
b0zzzzzzzzz ?
z@
b0 ?
0@
b10001101 I
b10 J
#2330
0!
04
#2335
1!
14
b0zzzzzzzzz ?
z@
b10001101 ?
0@
03
00
1/
0,
1+
0*
1)
0'
1%
1>
0;
19
#2340
0!
04
#2345
1!
14
b0zzzzzzzzz ?
z@
b10001101 ?
0@
b1101101 H
b10100 I
b1000 J
#2350
0!
04
#2355
1!
14
b0zzzzzzzzz ?
z@
1B
13
01
0/
1-
1,
0)
0(
1'
0&
0%
0>
1<
1;
09
18
#2360
0!
04
#2365
1!
14
zB
1B
b11000001 I
b11 J
#2370
0!
04
#2375
1!
14
zB
1A
b1110101011 ?
03
0-
0+
1)
1(
1>
0<
0;
19
08
#2380
0!
04
#2385
1!
14
b0zzzzzzzzz ?
zA
1A
b1110101100 ?
b11100 H
b10000000 I
b1000 J
#2390
0!
04
#2395
1!
14
b0zzzzzzzzz ?
zA
1D
13
12
11
1.
0,
1+
1*
0(
0'
1%
0>
1<
1;
1:
09
#2400
0!
04
#2405
1!
14
zD
1D
b100111 I
b111 J
#2410
0!
04
#2415
1!
14
zD
b101000 ?
02
1/
0.
1,
1(
1&
1$
1>
0=
0:
18
#2420
0!
04
#2425
1!
14
b0zzzzzzzzz ?
b101000 ?
b11101111 H
b11 J
#2430
0!
04
#2435
1!
14
b0zzzzzzzzz ?
0A
b11000111 ?
03
10
1-
0+
0*
0)
1'
0%
0>
0;
#2440
0!
04
#2445
1!
14
b0zzzzzzzzz ?
zA
0A
b11000111 ?
b0 H
b0 I
b0 J
